{
  "projectList" : [ {
    "uuid" : "43cd4830-b335-4663-8a1f-dec5da26f892",
    "ownerId" : "8bdde42c-22c1-4665-bbc1-55b63018b9f7",
    "name" : "TestOne",
    "description" : "1",
    "dateCreated" : "11.11.2019",
    "dateBegin" : "1",
    "dateEnd" : "1",
    "type" : "Project",
    "readinessStatus" : "ID_1"
  }, {
    "uuid" : "cf6af97f-c37b-4c8e-ad14-8cd53b25ecc5",
    "ownerId" : "8bdde42c-22c1-4665-bbc1-55b63018b9f7",
    "name" : "TestTwo",
    "description" : "2",
    "dateCreated" : "11.11.2019",
    "dateBegin" : "2",
    "dateEnd" : "2",
    "type" : "Project",
    "readinessStatus" : "ID_1"
  }, {
    "uuid" : "425fafaa-e59e-4b36-9efa-3ee5877ea3d7",
    "ownerId" : "8bdde42c-22c1-4665-bbc1-55b63018b9f7",
    "name" : "3",
    "description" : "3",
    "dateCreated" : "11.11.2019",
    "dateBegin" : "3",
    "dateEnd" : "3",
    "type" : "Project",
    "readinessStatus" : "ID_1"
  } ],
  "taskList" : null,
  "userList" : [ {
    "uuid" : "8bdde42c-22c1-4665-bbc1-55b63018b9f7",
    "login" : "root",
    "passwordHash" : "81dc9bdb52d04dc20036dbd8313ed055",
    "roleType" : "ADMIN"
  }, {
    "uuid" : "f2d15790-76ee-4c3a-b108-1ba4340590dd",
    "login" : "guest",
    "passwordHash" : "81dc9bdb52d04dc20036dbd8313ed055",
    "roleType" : "USER"
  } ]
}